version="0.18.5"
tags={
	"Balance"
	"Gameplay"
	"Fixes"
	"Expansion"
	"Graphics"
	"Historical"
}
name="Great Monuments Expanded"
picture="great_monuments_expanded.png"
supported_version="v1.37.*"
path="mod/Monuments-Expanded"
remote_file_id="2469419235"